{
    "allKeywords": [],
    "actions": [
        {
            "id": "7e4df8b6-2322-4d95-a8be-44e37750c02e",
            "details": "PresQT Transfer from GitLab to OSF",
            "actionDateTime": "2020-06-08 19:23:44.560282+00:00",
            "actionType": "transfer_enhancement",
            "sourceTargetName": "gitlab",
            "sourceUsername": "prometheus-test",
            "destinationTargetName": "gitlab",
            "destinationUsername": "prometheus-test",
            "keywords": {
                "sourceKeywordsAdded": [],
                "sourceKeywordsEnhanced": [],
                "enhancer": "scigraph"
            },
            "files": {
                "created": [],
                "updated": [],
                "ignored": []
            }
        }
    ]
}